<?xml version="1.0" encoding="utf-8"?>
<!-- Generator: Adobe Illustrator 26.3.0, SVG Export Plug-In . SVG Version: 6.00 Build 0)  -->
<svg version="1.1" id="Layer_1" xmlns="http://www.w3.org/2000/svg" xmlns:xlink="http://www.w3.org/1999/xlink" x="0px" y="0px"
	 viewBox="0 0 223.8 167.5" style="enable-background:new 0 0 223.8 167.5;" xml:space="preserve">
<rect y="71.2" width="193.8" height="25"/>
<polygon points="140,167.5 122.5,150 188.8,83.8 122.5,17.5 140,0 223.8,83.8 "/>
</svg>
