<?xml version="1.0" encoding="utf-8"?>
<!-- Generator: Adobe Illustrator 26.3.0, SVG Export Plug-In . SVG Version: 6.00 Build 0)  -->
<svg version="1.1" id="Layer_1" xmlns="http://www.w3.org/2000/svg" xmlns:xlink="http://www.w3.org/1999/xlink" x="0px" y="0px"
	 viewBox="0 0 433.28 433.28" style="enable-background:new 0 0 433.28 433.28;" xml:space="preserve">
<style type="text/css">
	.st0{clip-path:url(#SVGID_00000060718202183696166350000011426045899972011923_);}
	.st1{fill:#4854A4;}
	.st2{opacity:0.4;fill:url(#SVGID_00000020368977622048287670000017813104571835290241_);}
	.st3{fill:#FFFFFF;}
</style>
<g>
	<g>
		<g>
			<defs>
				<path id="SVGID_1_" d="M433.28,216.64C433.28,96.99,336.29,0,216.65,0C96.99,0,0,96.99,0,216.64s96.99,216.64,216.65,216.64
					C336.29,433.28,433.28,336.29,433.28,216.64z"/>
			</defs>
			<clipPath id="SVGID_00000049917896602697955010000008472998259045179034_">
				<use xlink:href="#SVGID_1_"  style="overflow:visible;"/>
			</clipPath>
			<g style="clip-path:url(#SVGID_00000049917896602697955010000008472998259045179034_);">
				<rect x="-5.46" y="-4.12" class="st1" width="440.87" height="440.86"/>
				<g>
					
						<linearGradient id="SVGID_00000082370804134812945070000015419564170353759127_" gradientUnits="userSpaceOnUse" x1="147.5275" y1="284.3973" x2="435.0975" y2="-3.1727" gradientTransform="matrix(1 0 0 -1 0 433.8898)">
						<stop  offset="0.2069" style="stop-color:#000000"/>
						<stop  offset="0.931" style="stop-color:#000000;stop-opacity:0"/>
					</linearGradient>
					<polygon style="opacity:0.4;fill:url(#SVGID_00000082370804134812945070000015419564170353759127_);" points="435.41,273.07 
						231.15,65.87 139.2,202.48 205.2,270.29 214.19,282.94 178,251.73 135.86,304.37 267.54,436.75 435.41,436.75 					"/>
					<path class="st3" d="M309.01,222.09c-5.83-9.65-15.31-17.87-28.19-24.44c-10.65-5.42-27.32-10.87-49.51-16.25v-40.38
						c1.88,0.96,3.61,2.08,5.17,3.38c5.69,4.7,9.58,12.01,11.58,21.78l61.93-3.62c-3.14-21.62-11.89-37.66-26.04-47.68
						c-12.54-8.89-30.25-14.03-52.64-15.43V65.83h-29.6v33.76c-15.6,1.11-28.48,3.85-38.42,8.19
						c-13.17,5.76-23.16,13.75-29.66,23.75c-6.52,10-9.82,20.76-9.82,31.98c0,17.07,6.43,31.31,19.13,42.33
						c11.91,10.4,31.72,19,58.78,25.66v55.43c-5.76-2.47-10.67-6.22-14.65-11.29c-4.41-5.63-7.45-13.66-9.05-23.9l-62.56,3.92
						c2.29,21.32,10.52,39.2,24.49,53.17c12.13,12.13,32.89,19.21,61.77,21.17v33.77h29.6v-33.58c16.33-1,30.36-3.98,41.76-8.99
						c14.06-6.17,25.15-15.35,32.95-27.26c7.81-11.91,11.77-25.11,11.77-39.23C317.79,242.72,314.83,231.75,309.01,222.09z
						 M190.29,168.69c-3.91-3.32-5.93-7.22-5.93-11.57c0-5.69,2.39-10.58,7.08-14.51c2.66-2.23,6.15-3.75,10.26-4.68v36.33
						C196.28,172.52,192.48,170.68,190.29,168.69z M244.93,282.74c-3.59,3.12-8.22,5.17-13.63,6.39v-49.67
						c6.5,2.37,11.18,4.82,14.06,7.39c5.69,5.12,8.57,11.06,8.57,17.66C253.93,271.44,250.91,277.57,244.93,282.74z"/>
				</g>
			</g>
		</g>
	</g>
</g>
</svg>
